Introducing R Through Data Visualization – GVPT399F
…
First, we need to load into our R session the R packages we will use. Today, we will be using the R packages contained within the tidyverse.

library(tidyverse)

Tip

Always load your packages into your R session at the top of your R script. These scripts run from top to bottom. Loading necessary libraries in at the start ensures you don’t get annoying, missing package errors later on.

Next, we need to load in the data we will be using. The mpg data set (which includes lots of information on various car models) comes as part of the ggplot2 R package, which we loaded in with the tidyverse. You can access the data set by running the following:

mpg

# A tibble: 234 × 11
   manufacturer model      displ  year   cyl trans drv     cty   hwy fl    class
   <chr>        <chr>      <dbl> <int> <int> <chr> <chr> <int> <int> <chr> <chr>
 1 audi         a4           1.8  1999     4 auto… f        18    29 p     comp…
 2 audi         a4           1.8  1999     4 manu… f        21    29 p     comp…
 3 audi         a4           2    2008     4 manu… f        20    31 p     comp…
 4 audi         a4           2    2008     4 auto… f        21    30 p     comp…
 5 audi         a4           2.8  1999     6 auto… f        16    26 p     comp…
 6 audi         a4           2.8  1999     6 manu… f        18    26 p     comp…
 7 audi         a4           3.1  2008     6 auto… f        18    27 p     comp…
 8 audi         a4 quattro   1.8  1999     4 manu… 4        18    26 p     comp…
 9 audi         a4 quattro   1.8  1999     4 auto… 4        16    25 p     comp…
10 audi         a4 quattro   2    2008     4 manu… 4        20    28 p     comp…
# ℹ 224 more rows
…
So far, we have looked at plotting the relationship between two continuous variables. We need different plot types to visualize categorical data.

First, let’s take a look at some categorical variables in our mpg data set:

# A tibble: 234 × 3
   manufacturer model      drv  
   <chr>        <chr>      <chr>
 1 audi         a4         f    
 2 audi         a4         f    
 3 audi         a4         f    
 4 audi         a4         f    
 5 audi         a4         f    
 6 audi         a4         f    
 7 audi         a4         f    
 8 audi         a4 quattro 4    
 9 audi         a4 quattro 4    
10 audi         a4 quattro 4    
# ℹ 224 more rows
…
