Data Transformation – GVPT399F
…
As mentioned above, we are going to be using the Gapminder project’s data on countries’ health and wealth to explore data transformation. Happily, there is an R package that provides that data for us. We will now install it:

install.packages("gapminder")

Next, you want to create a new script for this session. At the top of that script, include the code to load in the packages we will be using today:

library(tidyverse)
library(gapminder)

You can now access the Gapminder data directly:

gapminder

# A tibble: 1,704 × 6
   country     continent  year lifeExp      pop gdpPercap
   <fct>       <fct>     <int>   <dbl>    <int>     <dbl>
 1 Afghanistan Asia       1952    28.8  8425333      779.
 2 Afghanistan Asia       1957    30.3  9240934      821.
 3 Afghanistan Asia       1962    32.0 10267083      853.
 4 Afghanistan Asia       1967    34.0 11537966      836.
 5 Afghanistan Asia       1972    36.1 13079460      740.
 6 Afghanistan Asia       1977    38.4 14880372      786.
 7 Afghanistan Asia       1982    39.9 12881816      978.
 8 Afghanistan Asia       1987    40.8 13867957      852.
 9 Afghanistan Asia       1992    41.7 16317921      649.
10 Afghanistan Asia       1997    41.8 22227415      635.
# ℹ 1,694 more rows
…
For example, the following code takes our data set, gapminder, and tells filter() that we want to only include rows in which the country column matches “Australia” and the year column is greater than 2000:

filter(gapminder, country == "Australia", year > 2000)

# A tibble: 2 × 6
  country   continent  year lifeExp      pop gdpPercap
  <fct>     <fct>     <int>   <dbl>    <int>     <dbl>
1 Australia Oceania    2002    80.4 19546792    30688.
2 Australia Oceania    2007    81.2 20434176    34435.

We can ask filter() to include rows that match multiple values:

filter(gapminder, continent %in% c("Asia", "Oceania"))

# A tibble: 420 × 6
   country     continent  year lifeExp      pop gdpPercap
   <fct>       <fct>     <int>   <dbl>    <int>     <dbl>
 1 Afghanistan Asia       1952    28.8  8425333      779.
 2 Afghanistan Asia       1957    30.3  9240934      821.
 3 Afghanistan Asia       1962    32.0 10267083      853.
 4 Afghanistan Asia       1967    34.0 11537966      836.
 5 Afghanistan Asia       1972    36.1 13079460      740.
 6 Afghanistan Asia       1977    38.4 14880372      786.
 7 Afghanistan Asia       1982    39.9 12881816      978.
 8 Afghanistan Asia       1987    40.8 13867957      852.
 9 Afghanistan Asia       1992    41.7 16317921      649.
10 Afghanistan Asia       1997    41.8 22227415      635.
# ℹ 410 more rows

Here, I have used the %in% value and a vector (which is c(...)) of strings to ask filter to include all rows in which the continent column matches the values “Asia” and “Oceania”.

We can ask filter() to include values within a range. The following code asks filter() to include all rows in which the pop column is greater than 500,000 and less than 1,000,000:

filter(gapminder, pop > 500000 & pop < 1000000)

# A tibble: 88 × 6
   country  continent  year lifeExp    pop gdpPercap
   <fct>    <fct>     <int>   <dbl>  <int>     <dbl>
 1 Bahrain  Asia       1992    72.6 529491    19036.
 2 Bahrain  Asia       1997    73.9 598561    20292.
 3 Bahrain  Asia       2002    74.8 656397    23404.
 4 Bahrain  Asia       2007    75.6 708573    29796.
 5 Botswana Africa     1962    51.5 512764      984.
 6 Botswana Africa     1967    53.3 553541     1215.
 7 Botswana Africa     1972    56.0 619351     2264.
 8 Botswana Africa     1977    59.3 781472     3215.
 9 Botswana Africa     1982    61.5 970347     4551.
10 Comoros  Africa     1997    60.7 527982     1174.
# ℹ 78 more rows

The following code asks filter() to include all rows in which the pop column is greater than 500,000 or less than 1,000,000.

filter(gapminder, pop > 500000 | pop < 1000000)

# A tibble: 1,704 × 6
   country     continent  year lifeExp      pop gdpPercap
   <fct>       <fct>     <int>   <dbl>    <int>     <dbl>
 1 Afghanistan Asia       1952    28.8  8425333      779.
 2 Afghanistan Asia       1957    30.3  9240934      821.
 3 Afghanistan Asia       1962    32.0 10267083      853.
 4 Afghanistan Asia       1967    34.0 11537966      836.
 5 Afghanistan Asia       1972    36.1 13079460      740.
 6 Afghanistan Asia       1977    38.4 14880372      786.
 7 Afghanistan Asia       1982    39.9 12881816      978.
 8 Afghanistan Asia       1987    40.8 13867957      852.
 9 Afghanistan Asia       1992    41.7 16317921      649.
10 Afghanistan Asia       1997    41.8 22227415      635.
# ℹ 1,694 more rows
…
Note: 1e9 is scientific notation for 1 billion (which has nine zeros).

Find all countries in Oceania.

Check your answer

filter(gapminder, continent == "Oceania")

# A tibble: 24 × 6
   country   continent  year lifeExp      pop gdpPercap
   <fct>     <fct>     <int>   <dbl>    <int>     <dbl>
 1 Australia Oceania    1952    69.1  8691212    10040.
 2 Australia Oceania    1957    70.3  9712569    10950.
 3 Australia Oceania    1962    70.9 10794968    12217.
 4 Australia Oceania    1967    71.1 11872264    14526.
 5 Australia Oceania    1972    71.9 13177000    16789.
 6 Australia Oceania    1977    73.5 14074100    18334.
 7 Australia Oceania    1982    74.7 15184200    19477.
 8 Australia Oceania    1987    76.3 16257249    21889.
 9 Australia Oceania    1992    77.6 17481977    23425.
10 Australia Oceania    1997    78.8 18565243    26998.
# ℹ 14 more rows

Find all countries in both Asia and Europe.

Check your answer

filter(gapminder, continent %in% c("Asia", "Europe"))

# A tibble: 756 × 6
   country     continent  year lifeExp      pop gdpPercap
   <fct>       <fct>     <int>   <dbl>    <int>     <dbl>
 1 Afghanistan Asia       1952    28.8  8425333      779.
 2 Afghanistan Asia       1957    30.3  9240934      821.
 3 Afghanistan Asia       1962    32.0 10267083      853.
 4 Afghanistan Asia       1967    34.0 11537966      836.
 5 Afghanistan Asia       1972    36.1 13079460      740.
 6 Afghanistan Asia       1977    38.4 14880372      786.
 7 Afghanistan Asia       1982    39.9 12881816      978.
 8 Afghanistan Asia       1987    40.8 13867957      852.
 9 Afghanistan Asia       1992    41.7 16317921      649.
10 Afghanistan Asia       1997    41.8 22227415      635.
# ℹ 746 more rows

Find all country-years that have a life expectancy greater than 50 years and less than 60 years.

Check your answer

filter(gapminder, lifeExp > 50 & lifeExp < 60)

# A tibble: 336 × 6
   country    continent  year lifeExp      pop gdpPercap
   <fct>      <fct>     <int>   <dbl>    <int>     <dbl>
 1 Albania    Europe     1952    55.2  1282697     1601.
 2 Albania    Europe     1957    59.3  1476505     1942.
 3 Algeria    Africa     1967    51.4 12760499     3247.
 4 Algeria    Africa     1972    54.5 14760787     4183.
 5 Algeria    Africa     1977    58.0 17152804     4910.
 6 Bahrain    Asia       1952    50.9   120447     9867.
 7 Bahrain    Asia       1957    53.8   138655    11636.
 8 Bahrain    Asia       1962    56.9   171863    12753.
 9 Bahrain    Asia       1967    59.9   202182    14805.
10 Bangladesh Asia       1982    50.0 93074406      677.
# ℹ 326 more rows

Find all country-years that have a life expectancy less than 50 years or greater than 60 years.

Check your answer

filter(gapminder, lifeExp < 50 | lifeExp > 60)

# A tibble: 1,368 × 6
   country     continent  year lifeExp      pop gdpPercap
   <fct>       <fct>     <int>   <dbl>    <int>     <dbl>
 1 Afghanistan Asia       1952    28.8  8425333      779.
 2 Afghanistan Asia       1957    30.3  9240934      821.
 3 Afghanistan Asia       1962    32.0 10267083      853.
 4 Afghanistan Asia       1967    34.0 11537966      836.
 5 Afghanistan Asia       1972    36.1 13079460      740.
 6 Afghanistan Asia       1977    38.4 14880372      786.
 7 Afghanistan Asia       1982    39.9 12881816      978.
 8 Afghanistan Asia       1987    40.8 13867957      852.
 9 Afghanistan Asia       1992    41.7 16317921      649.
10 Afghanistan Asia       1997    41.8 22227415      635.
# ℹ 1,358 more rows
…
We can control the order of our data using arrange(). The following code sorts our data by country name (alphabetically) and year (in ascending numerical order):

arrange(gapminder, country, year)

# A tibble: 1,704 × 6
   country     continent  year lifeExp      pop gdpPercap
   <fct>       <fct>     <int>   <dbl>    <int>     <dbl>
 1 Afghanistan Asia       1952    28.8  8425333      779.
 2 Afghanistan Asia       1957    30.3  9240934      821.
 3 Afghanistan Asia       1962    32.0 10267083      853.
 4 Afghanistan Asia       1967    34.0 11537966      836.
 5 Afghanistan Asia       1972    36.1 13079460      740.
 6 Afghanistan Asia       1977    38.4 14880372      786.
 7 Afghanistan Asia       1982    39.9 12881816      978.
 8 Afghanistan Asia       1987    40.8 13867957      852.
 9 Afghanistan Asia       1992    41.7 16317921      649.
10 Afghanistan Asia       1997    41.8 22227415      635.
# ℹ 1,694 more rows

To sort in descending order, simply wrap your column name in the desc() function:

arrange(gapminder, country, desc(year))

# A tibble: 1,704 × 6
   country     continent  year lifeExp      pop gdpPercap
   <fct>       <fct>     <int>   <dbl>    <int>     <dbl>
 1 Afghanistan Asia       2007    43.8 31889923      975.
 2 Afghanistan Asia       2002    42.1 25268405      727.
 3 Afghanistan Asia       1997    41.8 22227415      635.
 4 Afghanistan Asia       1992    41.7 16317921      649.
 5 Afghanistan Asia       1987    40.8 13867957      852.
 6 Afghanistan Asia       1982    39.9 12881816      978.
 7 Afghanistan Asia       1977    38.4 14880372      786.
 8 Afghanistan Asia       1972    36.1 13079460      740.
 9 Afghanistan Asia       1967    34.0 11537966      836.
10 Afghanistan Asia       1962    32.0 10267083      853.
# ℹ 1,694 more rows
…
# A tibble: 1 × 6
  country continent  year lifeExp       pop gdpPercap
  <fct>   <fct>     <int>   <dbl>     <int>     <dbl>
1 Japan   Asia       2007    82.6 127467972    31656.

Exercises

Which country-year has the lowest life expectancy?

Check your answer

arrange(gapminder, lifeExp)

# A tibble: 1,704 × 6
   country      continent  year lifeExp     pop gdpPercap
   <fct>        <fct>     <int>   <dbl>   <int>     <dbl>
 1 Rwanda       Africa     1992    23.6 7290203      737.
 2 Afghanistan  Asia       1952    28.8 8425333      779.
 3 Gambia       Africa     1952    30    284320      485.
 4 Angola       Africa     1952    30.0 4232095     3521.
 5 Sierra Leone Africa     1952    30.3 2143249      880.
 6 Afghanistan  Asia       1957    30.3 9240934      821.
 7 Cambodia     Asia       1977    31.2 6978607      525.
 8 Mozambique   Africa     1952    31.3 6446316      469.
 9 Sierra Leone Africa     1957    31.6 2295678     1004.
10 Burkina Faso Africa     1952    32.0 4469979      543.
# ℹ 1,694 more rows

Note: check out slice_min() and slice_max() for more efficient ways of doing this.

Which country-year has the largest population?

Check your answer

arrange(gapminder, desc(pop))

# A tibble: 1,704 × 6
   country continent  year lifeExp        pop gdpPercap
   <fct>   <fct>     <int>   <dbl>      <int>     <dbl>
 1 China   Asia       2007    73.0 1318683096     4959.
 2 China   Asia       2002    72.0 1280400000     3119.
 3 China   Asia       1997    70.4 1230075000     2289.
 4 China   Asia       1992    68.7 1164970000     1656.
 5 India   Asia       2007    64.7 1110396331     2452.
 6 China   Asia       1987    67.3 1084035000     1379.
 7 India   Asia       2002    62.9 1034172547     1747.
 8 China   Asia       1982    65.5 1000281000      962.
 9 India   Asia       1997    61.8  959000000     1459.
10 China   Asia       1977    64.0  943455000      741.
# ℹ 1,694 more rows
…
You can focus your data set on only those variables you are interested in using select(). The following code selects only the country, year, and pop variables from our larger gapminder data set:

select(gapminder, country, year, pop)

# A tibble: 1,704 × 3
   country      year      pop
   <fct>       <int>    <int>
 1 Afghanistan  1952  8425333
 2 Afghanistan  1957  9240934
 3 Afghanistan  1962 10267083
 4 Afghanistan  1967 11537966
 5 Afghanistan  1972 13079460
 6 Afghanistan  1977 14880372
 7 Afghanistan  1982 12881816
 8 Afghanistan  1987 13867957
 9 Afghanistan  1992 16317921
10 Afghanistan  1997 22227415
# ℹ 1,694 more rows

dplyr includes some operators that help keep your code clean when working with a lot of data. For example, you can use a colon (:) to select all columns between two columns:

select(gapminder, country:pop)

# A tibble: 1,704 × 5
   country     continent  year lifeExp      pop
   <fct>       <fct>     <int>   <dbl>    <int>
 1 Afghanistan Asia       1952    28.8  8425333
 2 Afghanistan Asia       1957    30.3  9240934
 3 Afghanistan Asia       1962    32.0 10267083
 4 Afghanistan Asia       1967    34.0 11537966
 5 Afghanistan Asia       1972    36.1 13079460
 6 Afghanistan Asia       1977    38.4 14880372
 7 Afghanistan Asia       1982    39.9 12881816
 8 Afghanistan Asia       1987    40.8 13867957
 9 Afghanistan Asia       1992    41.7 16317921
10 Afghanistan Asia       1997    41.8 22227415
# ℹ 1,694 more rows

You can use a negative sign (-) to specify which columns you want to exclude:

select(gapminder, -(lifeExp:pop))

# A tibble: 1,704 × 4
   country     continent  year gdpPercap
   <fct>       <fct>     <int>     <dbl>
 1 Afghanistan Asia       1952      779.
 2 Afghanistan Asia       1957      821.
 3 Afghanistan Asia       1962      853.
 4 Afghanistan Asia       1967      836.
 5 Afghanistan Asia       1972      740.
 6 Afghanistan Asia       1977      786.
 7 Afghanistan Asia       1982      978.
 8 Afghanistan Asia       1987      852.
 9 Afghanistan Asia       1992      649.
10 Afghanistan Asia       1997      635.
# ℹ 1,694 more rows

Exercises

Select only the country, year, and lifeExp variables from gapminder.

Check your answer

select(gapminder, country, year, lifeExp)

# A tibble: 1,704 × 3
   country      year lifeExp
   <fct>       <int>   <dbl>
 1 Afghanistan  1952    28.8
 2 Afghanistan  1957    30.3
 3 Afghanistan  1962    32.0
 4 Afghanistan  1967    34.0
 5 Afghanistan  1972    36.1
 6 Afghanistan  1977    38.4
 7 Afghanistan  1982    39.9
 8 Afghanistan  1987    40.8
 9 Afghanistan  1992    41.7
10 Afghanistan  1997    41.8
# ℹ 1,694 more rows

What does the any_of() function do? Why might it be helpful in conjunction with this vector?

vars <- c("country", "year", "lifeExp", "boop")

Check your answer

select(gapminder, any_of(vars))

# A tibble: 1,704 × 3
   country      year lifeExp
   <fct>       <int>   <dbl>
 1 Afghanistan  1952    28.8
 2 Afghanistan  1957    30.3
 3 Afghanistan  1962    32.0
 4 Afghanistan  1967    34.0
 5 Afghanistan  1972    36.1
 6 Afghanistan  1977    38.4
 7 Afghanistan  1982    39.9
 8 Afghanistan  1987    40.8
 9 Afghanistan  1992    41.7
10 Afghanistan  1997    41.8
# ℹ 1,694 more rows

What does the following code produce?

select(gapminder, starts_with("c"))

Check your answer

select(gapminder, starts_with("c"))

# A tibble: 1,704 × 2
   country     continent
   <fct>       <fct>    
 1 Afghanistan Asia     
 2 Afghanistan Asia     
 3 Afghanistan Asia     
 4 Afghanistan Asia     
 5 Afghanistan Asia     
 6 Afghanistan Asia     
 7 Afghanistan Asia     
 8 Afghanistan Asia     
 9 Afghanistan Asia     
10 Afghanistan Asia     
# ℹ 1,694 more rows
…
Oftentimes, we need to create new columns from existing ones or change in a consistent way existing columns of data. You can use mutate() to do this. For example, the following code creates a new column, gdp, which is the product of gdpPercap and pop:

mutate(gapminder, gdp = gdpPercap * pop)

# A tibble: 1,704 × 7
   country     continent  year lifeExp      pop gdpPercap          gdp
   <fct>       <fct>     <int>   <dbl>    <int>     <dbl>        <dbl>
 1 Afghanistan Asia       1952    28.8  8425333      779.  6567086330.
 2 Afghanistan Asia       1957    30.3  9240934      821.  7585448670.
 3 Afghanistan Asia       1962    32.0 10267083      853.  8758855797.
 4 Afghanistan Asia       1967    34.0 11537966      836.  9648014150.
 5 Afghanistan Asia       1972    36.1 13079460      740.  9678553274.
 6 Afghanistan Asia       1977    38.4 14880372      786. 11697659231.
 7 Afghanistan Asia       1982    39.9 12881816      978. 12598563401.
 8 Afghanistan Asia       1987    40.8 13867957      852. 11820990309.
 9 Afghanistan Asia       1992    41.7 16317921      649. 10595901589.
10 Afghanistan Asia       1997    41.8 22227415      635. 14121995875.
# ℹ 1,694 more rows

The following code transforms the existing column gdpPercap to its logged form:

mutate(gapminder, gdpPercap = log(gdpPercap))

# A tibble: 1,704 × 6
   country     continent  year lifeExp      pop gdpPercap
   <fct>       <fct>     <int>   <dbl>    <int>     <dbl>
 1 Afghanistan Asia       1952    28.8  8425333      6.66
 2 Afghanistan Asia       1957    30.3  9240934      6.71
 3 Afghanistan Asia       1962    32.0 10267083      6.75
 4 Afghanistan Asia       1967    34.0 11537966      6.73
 5 Afghanistan Asia       1972    36.1 13079460      6.61
 6 Afghanistan Asia       1977    38.4 14880372      6.67
 7 Afghanistan Asia       1982    39.9 12881816      6.89
 8 Afghanistan Asia       1987    40.8 13867957      6.75
 9 Afghanistan Asia       1992    41.7 16317921      6.48
10 Afghanistan Asia       1997    41.8 22227415      6.45
# ℹ 1,694 more rows

You can combine select() and mutate() using the transmute() function:

transmute(gapminder, country, year, gdp = gdpPercap * pop)

# A tibble: 1,704 × 3
   country      year          gdp
   <fct>       <int>        <dbl>
 1 Afghanistan  1952  6567086330.
 2 Afghanistan  1957  7585448670.
 3 Afghanistan  1962  8758855797.
 4 Afghanistan  1967  9648014150.
 5 Afghanistan  1972  9678553274.
 6 Afghanistan  1977 11697659231.
 7 Afghanistan  1982 12598563401.
 8 Afghanistan  1987 11820990309.
 9 Afghanistan  1992 10595901589.
10 Afghanistan  1997 14121995875.
# ℹ 1,694 more rows

Exercises

Create a new variable that provides each country-year’s GDP (which you can get by multiplying its GDP with its population).

Check your answer

mutate(gapminder, gdp = gdpPercap * pop)

# A tibble: 1,704 × 7
   country     continent  year lifeExp      pop gdpPercap          gdp
   <fct>       <fct>     <int>   <dbl>    <int>     <dbl>        <dbl>
 1 Afghanistan Asia       1952    28.8  8425333      779.  6567086330.
 2 Afghanistan Asia       1957    30.3  9240934      821.  7585448670.
 3 Afghanistan Asia       1962    32.0 10267083      853.  8758855797.
 4 Afghanistan Asia       1967    34.0 11537966      836.  9648014150.
 5 Afghanistan Asia       1972    36.1 13079460      740.  9678553274.
 6 Afghanistan Asia       1977    38.4 14880372      786. 11697659231.
 7 Afghanistan Asia       1982    39.9 12881816      978. 12598563401.
 8 Afghanistan Asia       1987    40.8 13867957      852. 11820990309.
 9 Afghanistan Asia       1992    41.7 16317921      649. 10595901589.
10 Afghanistan Asia       1997    41.8 22227415      635. 14121995875.
# ℹ 1,694 more rows

Create a new data set that only includes information on each country-year’s name, year, and GDP.

Check your answer

transmute(gapminder, country, year, gdp = gdpPercap * pop)

# A tibble: 1,704 × 3
   country      year          gdp
   <fct>       <int>        <dbl>
 1 Afghanistan  1952  6567086330.
 2 Afghanistan  1957  7585448670.
 3 Afghanistan  1962  8758855797.
 4 Afghanistan  1967  9648014150.
 5 Afghanistan  1972  9678553274.
 6 Afghanistan  1977 11697659231.
 7 Afghanistan  1982 12598563401.
 8 Afghanistan  1987 11820990309.
 9 Afghanistan  1992 10595901589.
10 Afghanistan  1997 14121995875.
# ℹ 1,694 more rows
…
