From Samples to the Population – GVPT399F
…
This is important because older people tend to be more conservative than the general population as well. Your survey (which will include a disproportionately large group of older people) is likely to overstate how conservative the population as a whole is.

The effects of an unrepresentative sample

Let’s step through this with some actual data. Consider trying to answer the question: what was the average GDP earned by countries globally in 2022?

To demonstrate the effects of a biased sample, we are going to download all available GDP values for 2022 using the World Bank’s application programming interface (API). We are going to use the wb_data() function from the wbstats R package to do this. I am going to assign the resulting data set to an object called gdp_df.

gdp_df <- wb_data("NY.GDP.MKTP.CD", return_wide = F, start_date = 2022, end_date = 2022) |> 
  # Select only the relevant data points
  select(iso3c:value)

gdp_df

# A tibble: 217 × 4
   iso3c country              date         value
   <chr> <chr>               <dbl>         <dbl>
 1 AFG   Afghanistan          2022  14497243872.
 2 ALB   Albania              2022  19017242586.
 3 DZA   Algeria              2022 225638456572.
 4 ASM   American Samoa       2022    871000000 
 5 AND   Andorra              2022   3380612573.
 6 AGO   Angola               2022 104399746853.
 7 ATG   Antigua and Barbuda  2022   1867733333.
 8 ARG   Argentina            2022 632790070063.
 9 ARM   Armenia              2022  19513506553.
10 ABW   Aruba                2022   3279343544.
# ℹ 207 more rows
…
is.na(1)

[1] FALSE

is.na(NA)

[1] TRUE

When supplied to the filter() function, it filters out all the values that are not NA (and are marked as FALSE by the is.na() function).

To exclude missing values, you can negate is.na():

filter(gdp_df, !is.na(value))

# A tibble: 206 × 4
   iso3c country              date         value
   <chr> <chr>               <dbl>         <dbl>
 1 AFG   Afghanistan          2022  14497243872.
 2 ALB   Albania              2022  19017242586.
 3 DZA   Algeria              2022 225638456572.
 4 ASM   American Samoa       2022    871000000 
 5 AND   Andorra              2022   3380612573.
 6 AGO   Angola               2022 104399746853.
 7 ATG   Antigua and Barbuda  2022   1867733333.
 8 ARG   Argentina            2022 632790070063.
 9 ARM   Armenia              2022  19513506553.
10 ABW   Aruba                2022   3279343544.
# ℹ 196 more rows

Alternatively, you can use the drop_na() function from the tidyr package:

drop_na(gdp_df, value)

# A tibble: 206 × 4
   iso3c country              date         value
   <chr> <chr>               <dbl>         <dbl>
 1 AFG   Afghanistan          2022  14497243872.
 2 ALB   Albania              2022  19017242586.
 3 DZA   Algeria              2022 225638456572.
 4 ASM   American Samoa       2022    871000000 
 5 AND   Andorra              2022   3380612573.
 6 AGO   Angola               2022 104399746853.
 7 ATG   Antigua and Barbuda  2022   1867733333.
 8 ARG   Argentina            2022 632790070063.
 9 ARM   Armenia              2022  19513506553.
10 ABW   Aruba                2022   3279343544.
# ℹ 196 more rows
…
Undeterred, I send out my requests to those departments I have contact details for. I receive some responses:

gdp_responses_df <- gdp_df |> 
  # Only sample from the countries I contacted
  filter(contact_details_found == 1) |> 
  # Simulate the uneven likelihood I receive responses back (based on wealth)
  mutate(response_received = if_else(value < first_quartile_gdp,
                                     rbinom(1, 1, 0.5),
                                     rbinom(1, 1, 0.8))) |>
  filter(response_received == 1) |> 
  select(iso3c:value)

gdp_responses_df

# A tibble: 116 × 4
   iso3c country      date   value
   <chr> <chr>       <dbl>   <dbl>
 1 AFG   Afghanistan  2022 1.45e10
 2 ALB   Albania      2022 1.90e10
 3 DZA   Algeria      2022 2.26e11
 4 AGO   Angola       2022 1.04e11
 5 ARM   Armenia      2022 1.95e10
 6 AUS   Australia    2022 1.69e12
 7 AUT   Austria      2022 4.72e11
 8 BHR   Bahrain      2022 4.67e10
 9 BGD   Bangladesh   2022 4.60e11
10 BEL   Belgium      2022 5.93e11
# ℹ 106 more rows
…
The average GDP among this small pure random sample is $15,346,573,268, a $472,342,002,288 dollar difference from the population average.

If we increase our sample size, we get closer to the population average:

gdp_175_df <- sample_n(gdp_df, size = 175)
gdp_175_df

# A tibble: 175 × 5
   iso3c country                         date   value contact_details_found
   <chr> <chr>                          <dbl>   <dbl>                 <int>
 1 TTO   Trinidad and Tobago             2022 3.01e10                     1
 2 OMN   Oman                            2022 1.12e11                     0
 3 KNA   St. Kitts and Nevis             2022 9.81e 8                     0
 4 PAN   Panama                          2022 7.63e10                     0
 5 COL   Colombia                        2022 3.45e11                     1
 6 VCT   St. Vincent and the Grenadines  2022 9.66e 8                     0
 7 TZA   Tanzania                        2022 7.58e10                     0
 8 ITA   Italy                           2022 2.10e12                     1
 9 MHL   Marshall Islands                2022 2.53e 8                     0
10 GRD   Grenada                         2022 1.22e 9                     0
# ℹ 165 more rows
…
We will look at surveys run in the 2020 US Presidential Election. We will learn about overall support for the two candidates (Joe Biden and Donald Trump), and how this support shifted across different demographics. We will then compare that survey to the end result to learn how accurately the survey reflected the population’s views.

A survey of votes cast

We are going to look at the American National Election Studies pre-election survey. The ANES conducts surveys on voting, public opinion, and political participation. You can learn more about them from their website.

To download the data, you will need to head over to the ANES website, download the relevant file, and save it in your RProject. The following video demonstrates how to do this.

Once you have collected the data, you can read it in using the readr package’s read_csv() function. It takes the file’s path as its first argument.

anes_raw <- read_csv(here("content", "data", "anes_timeseries_2020_csv_20220210.csv"))
anes_raw

# A tibble: 8,280 × 1,771
   version  V200001 V160001_orig V200002 V200003 V200004 V200005 V200006 V200007
   <chr>      <dbl>        <dbl>   <dbl>   <dbl>   <dbl>   <dbl>   <dbl>   <dbl>
 1 ANES202…  200015       401318       3       2       3       0      -2      -2
 2 ANES202…  200022       300261       3       2       3       0       4      -1
 3 ANES202…  200039       400181       3       2       3       0      -2      -2
 4 ANES202…  200046       300171       3       2       3       0      -2      -2
 5 ANES202…  200053       405145       3       2       3       1      -2      -2
 6 ANES202…  200060       400374       3       2       3       0      -2      -2
 7 ANES202…  200084       407013       3       2       3       0      -2      -2
 8 ANES202…  200091       407174       3       2       3       0      -2      -2
 9 ANES202…  200107       406264       3       2       3       0      -2      -2
10 ANES202…  200114       402782       3       2       3       1       4      -1
# ℹ 8,270 more rows
# ℹ 1,762 more variables: V200008 <dbl>, V200009 <dbl>, V200010a <dbl>,
#   V200010b <dbl>, V200010c <dbl>, V200010d <dbl>, V200011a <dbl>,
#   V200011b <dbl>, V200011c <dbl>, V200011d <dbl>, V200012a <dbl>,
#   V200012b <dbl>, V200012c <dbl>, V200012d <dbl>, V200013a <dbl>,
#   V200013b <dbl>, V200013c <dbl>, V200013d <dbl>, V200014a <dbl>,
#   V200014b <dbl>, V200014c <dbl>, V200014d <dbl>, V200015a <dbl>, …
…
This question was only asked of respondents who had already told the interviewer that they voted for a US president. Not all respondents voted, so we need to remove those who did not from our data set.

We will then match these data to the total vote count each candidate won in the election to see if they are similar.

Let’s start by transforming our data set into one that is more suitable for this analysis:

anes_df <- anes_raw |> 
  select(respondent_id = V200001,
         voted_for_pres = V202072,
         pres_vote = V202073)

anes_df

# A tibble: 8,280 × 3
   respondent_id voted_for_pres pres_vote
           <dbl>          <dbl>     <dbl>
 1        200015             -1        -1
 2        200022              1         3
 3        200039              1         1
 4        200046              1         1
 5        200053              1         2
 6        200060              1         1
 7        200084              1         2
 8        200091             -1        -1
 9        200107             -1        -1
10        200114              1         1
# ℹ 8,270 more rows
…
anes_df <- anes_df |> 
  mutate(voted_for_pres = factor(voted_for_pres, levels = 1:2, 
                                 labels = c("Yes, voted for President",
                                            "No, didn’t vote for President")),
         pres_vote = factor(pres_vote, levels = 1:5,
                            labels = c("DEMOCRAT",
                                       "REPUBLICAN",
                                       "LIBERTARIAN",
                                       "GREENS",
                                       "OTHER")))

anes_df

# A tibble: 8,280 × 3
   respondent_id voted_for_pres           pres_vote  
           <dbl> <fct>                    <fct>      
 1        200015 <NA>                     <NA>       
 2        200022 Yes, voted for President LIBERTARIAN
 3        200039 Yes, voted for President DEMOCRAT   
 4        200046 Yes, voted for President DEMOCRAT   
 5        200053 Yes, voted for President REPUBLICAN 
 6        200060 Yes, voted for President DEMOCRAT   
 7        200084 Yes, voted for President REPUBLICAN 
 8        200091 <NA>                     <NA>       
 9        200107 <NA>                     <NA>       
10        200114 Yes, voted for President DEMOCRAT   
# ℹ 8,270 more rows
…
I got the response labels from the survey questionnaire linked above.

Tip

factor() takes as its first argument the name of the column you would like to convert to a factor. You then specify which numbers you need to code as your values using the levels argument. Finally, you supply the more human-friendly name of those values in the labels argument.

I now have a much cleaner version of my data set. Next, we need to exclude those respondents who did not vote for any Presidential candidate or who did not respond to the interviewer’s question about which candidate they voted for:

pres_voted_df <- anes_df |> 
  filter(voted_for_pres == "Yes, voted for President") |> 
  drop_na(pres_vote)

pres_voted_df

# A tibble: 5,877 × 3
   respondent_id voted_for_pres           pres_vote  
           <dbl> <fct>                    <fct>      
 1        200022 Yes, voted for President LIBERTARIAN
 2        200039 Yes, voted for President DEMOCRAT   
 3        200046 Yes, voted for President DEMOCRAT   
 4        200053 Yes, voted for President REPUBLICAN 
 5        200060 Yes, voted for President DEMOCRAT   
 6        200084 Yes, voted for President REPUBLICAN 
 7        200114 Yes, voted for President DEMOCRAT   
 8        200121 Yes, voted for President DEMOCRAT   
 9        200138 Yes, voted for President DEMOCRAT   
10        200152 Yes, voted for President REPUBLICAN 
# ℹ 5,867 more rows
…
